Functions for Ontario School Board data professionals • obt
…
# install.packages("devtools")
devtools::install_github("grousell/obt")

Recode Report Card Marks to Achievement Levels

This functions takes a vector of report card marks and re-codes into Ontario achievement levels.

library(obt)
library(dplyr)
df <- ele_rc

df |>
  select (id, reading) |> 
  mutate (reading_level = obt_recode_rc_to_levels(reading))
#> # A tibble: 2,500 x 3
#>        id reading reading_level
#>     <int> <chr>   <chr>        
#>  1 175190 B-      Level 3      
#>  2 280759 R       NE1          
#>  3 379054 C       Level 2      
#>  4 413406 B       Level 3      
#>  5 335653 A-      Level 4      
#>  6 202305 90      Level 4      
#>  7 478795 65      Level 2      
#>  8 477059 C       Level 2      
#>  9 498422 68      Level 2      
#> 10 178066 A       Level 4      
#> # ... with 2,490 more rows
#> # i Use `print(n = ...)` to see more rows
…
